^C:\USERS\THEBESTONE\SOURCE\REPOS\HW14\DEBUG\HW14.OBJ
C:\USERS\THEBESTONE\SOURCE\REPOS\HW14\DEBUG\HW14.EXE
C:\USERS\THEBESTONE\SOURCE\REPOS\HW14\DEBUG\HW14.ILK
C:\USERS\THEBESTONE\SOURCE\REPOS\HW14\DEBUG\HW14.PDB
